Izbrane teme
…
Pri prvem delu uporabljamo operator %in% za delo z množicami in preverimo ali je ID_BZ tabele A v izbranih vrsticah tabele RazsirjenA. Na koncu z levim združevanjem dodamo še vrednosti trajanja_b iz tabele B in izpišemo okrajšan rezultat. Za izpis točno željene tabele je potrebno le spremeniti zadnji select in podatke shraniti nazaj v tabelo A.

Urejanje kumulativne razpredelnice

Iz repozitorija slovenskega COVID sledilnika (https://github.com/sledilnik/data) prenesemo podatke o kumulativnem številu okuženih glede na spol in starostno kategorijo (age-cases.csv). Preberimo datoteko v našo sejo R:

library(tidyverse)
df <- read_csv("./data-raw/age-cases.csv")
df

## # A tibble: 469 x 45
##    date       `age.male.0-4.tod~ `age.male.5-14.to~ `age.male.15-24.t~ `age.male.25-34.t~ `age.male.35-44.t~ `age.male.45-54.t~ `age.male.55-64.~ `age.male.65-74.~
##    <date>                  <dbl>              <dbl>              <dbl>              <dbl>              <dbl>              <dbl>             <dbl>             <dbl>
##  1 2020-03-04                 NA                 NA                 NA                 NA                 NA                 NA                 1                NA
##  2 2020-03-05                 NA                 NA                 NA                  2                  1                 NA                 1                 1
##  3 2020-03-06                 NA                 NA                 NA                  2                  1                  1                 3                 1
##  4 2020-03-07                 NA                 NA                 NA                  4                  1                  1                 3                 1
##  5 2020-03-08                 NA                 NA                 NA                  4                  1                  1                 4                 2
##  6 2020-03-09                 NA                 NA                  1                  5                  1                  1                 5                 4
##  7 2020-03-10                 NA                 NA                  1                  6                  2                  2                 7                 5
##  8 2020-03-11                 NA                  1                  2                 10                  5                  5                 9                 6
##  9 2020-03-12                 NA                  5                  5                 18                  9                  9                15                 6
## 10 2020-03-13                 NA                  5                  8                 21                 10                 16                15                10
## # ... with 459 more rows, and 36 more variables: age.male.75-84.todate <dbl>, age.male.85+.todate <dbl>, age.male.todate <dbl>, age.female.0-4.todate <dbl>,
## #   age.female.5-14.todate <dbl>, age.female.15-24.todate <dbl>, age.female.25-34.todate <dbl>, age.female.35-44.todate <dbl>, age.female.45-54.todate <dbl>,
## #   age.female.55-64.todate <dbl>, age.female.65-74.todate <dbl>, age.female.75-84.todate <dbl>, age.female.85+.todate <dbl>, age.female.todate <dbl>,
## #   age.unknown.0-4.todate <lgl>, age.unknown.5-14.todate <lgl>, age.unknown.15-24.todate <dbl>, age.unknown.25-34.todate <dbl>, age.unknown.35-44.todate <dbl>,
## #   age.unknown.45-54.todate <dbl>, age.unknown.55-64.todate <dbl>, age.unknown.65-74.todate <lgl>, age.unknown.75-84.todate <lgl>, age.unknown.85+.todate <lgl>,
## #   age.unknown.todate <dbl>, age.0-4.todate <dbl>, age.5-14.todate <dbl>, age.15-24.todate <dbl>, age.25-34.todate <dbl>, age.35-44.todate <dbl>,
## #   age.45-54.todate <dbl>, age.55-64.todate <dbl>, age.65-74.todate <dbl>, age.75-84.todate <dbl>, age.85+.todate <dbl>, age.todate <dbl>

Opazimo, da so podatki shranjeni v zelo široki razpredelnici. Vsak stolpec v bistvu hrani 2 spremenljivki – spol in starost. Pretvorimo podatke v urejeno obliko. Začnimo s pretvorbo v daljšo obliko:

df_tidy <- df %>% 
  pivot_longer(cols = starts_with("age"), values_to = "cumulative")
df_tidy

## # A tibble: 20,636 x 3
##    date       name                  cumulative
##    <date>     <chr>                      <dbl>
##  1 2020-03-04 age.male.0-4.todate           NA
##  2 2020-03-04 age.male.5-14.todate          NA
##  3 2020-03-04 age.male.15-24.todate         NA
##  4 2020-03-04 age.male.25-34.todate         NA
##  5 2020-03-04 age.male.35-44.todate         NA
##  6 2020-03-04 age.male.45-54.todate         NA
##  7 2020-03-04 age.male.55-64.todate          1
##  8 2020-03-04 age.male.65-74.todate         NA
##  9 2020-03-04 age.male.75-84.todate         NA
## 10 2020-03-04 age.male.85+.todate           NA
## # ... with 20,626 more rows

Naslednji korak je, da stolpec name razdružimo. Izgleda, kot da je ločitveni znak pika, torej uporabimo za separator \\., saj razdružujemo z regularnim izrazom:

df_tidy <- df %>% 
  pivot_longer(cols = starts_with("age"), values_to = "cumulative") %>%
  separate(name, into = c("delete1", "sex", "age", "delete2"), "\\.")

## Warning: Expected 4 pieces. Missing pieces filled with `NA` in 6566 rows [11, 22, 33, 34, 35, 36, 37, 38, 39, 40, 41, 42, 43, 44, 55, 66, 77, 78, 79, 80, ...].

df_tidy

## # A tibble: 20,636 x 6
##    date       delete1 sex   age   delete2 cumulative
##    <date>     <chr>   <chr> <chr> <chr>        <dbl>
##  1 2020-03-04 age     male  0-4   todate          NA
##  2 2020-03-04 age     male  5-14  todate          NA
##  3 2020-03-04 age     male  15-24 todate          NA
##  4 2020-03-04 age     male  25-34 todate          NA
##  5 2020-03-04 age     male  35-44 todate          NA
##  6 2020-03-04 age     male  45-54 todate          NA
##  7 2020-03-04 age     male  55-64 todate           1
##  8 2020-03-04 age     male  65-74 todate          NA
##  9 2020-03-04 age     male  75-84 todate          NA
## 10 2020-03-04 age     male  85+   todate          NA
## # ... with 20,626 more rows
…
Opazimo, da niso vsi stolpci ločeni s 3 pikami. Imamo tudi stolpce, ki povzemajo. Na primer, age.male.todate vsebuje vsoto vseh okuženih moških do nekega datuma, torej je vsota stolpcev. V urejenih podatkih ne želimo povzemanj, saj ne želimo mešati posameznih podatkov in njihovih vsot. Povzemanja lahko kasneje izračunamo sami. Zadevo rešimo tako, da iz stolpca name v daljši obliki izberemo samo tiste stolpce, ki vsebujejo 3 pike, pri čemer imamo okoli pike vedno nek tekst. Uporabimo str_detect() in regularne izraze:

df_tidy <- df %>%
  pivot_longer(cols = starts_with("age"), values_to = "cumulative") %>%
  filter(str_detect(name, "[:alpha:]*\\.[:alpha:]*\\.[0-9-]*\\.[:alpha:]*")) %>%
  separate("name", into = c("delete1", "sex", "age", "delete2"), sep = "\\.") %>%
  select(date, sex, age, cumulative)
df_tidy

## # A tibble: 12,663 x 4
##    date       sex    age   cumulative
##    <date>     <chr>  <chr>      <dbl>
##  1 2020-03-04 male   0-4           NA
##  2 2020-03-04 male   5-14          NA
##  3 2020-03-04 male   15-24         NA
##  4 2020-03-04 male   25-34         NA
##  5 2020-03-04 male   35-44         NA
##  6 2020-03-04 male   45-54         NA
##  7 2020-03-04 male   55-64          1
##  8 2020-03-04 male   65-74         NA
##  9 2020-03-04 male   75-84         NA
## 10 2020-03-04 female 0-4           NA
## # ... with 12,653 more rows

Spremenimo manjkajoče vrednosti v 0:

df_tidy <- df %>%
  pivot_longer(cols = starts_with("age"), values_to = "cumulative") %>%
  filter(str_detect(name, "[:alpha:]*\\.[:alpha:]*\\.[0-9-]*\\.[:alpha:]*")) %>%
  separate("name", into = c("delete1", "sex", "age", "delete2"), sep = "\\.") %>%
  select(date, sex, age, cumulative) %>%
  mutate(cumulative = replace_na(cumulative, 0))
df_tidy

## # A tibble: 12,663 x 4
##    date       sex    age   cumulative
##    <date>     <chr>  <chr>      <dbl>
##  1 2020-03-04 male   0-4            0
##  2 2020-03-04 male   5-14           0
##  3 2020-03-04 male   15-24          0
##  4 2020-03-04 male   25-34          0
##  5 2020-03-04 male   35-44          0
##  6 2020-03-04 male   45-54          0
##  7 2020-03-04 male   55-64          1
##  8 2020-03-04 male   65-74          0
##  9 2020-03-04 male   75-84          0
## 10 2020-03-04 female 0-4            0
## # ... with 12,653 more rows
…
## [1] 1 4 1 1

Uporabimo sedaj to funkcijo, da dobimo dnevne podatke. Pri tem moramo biti pozorni, da so kumulativne vrednosti podane za vsak spol in starost posebej. Torej moramo podatke tudi grupirati:

df_tidy <- df %>%
  pivot_longer(cols = starts_with("age"), values_to = "cumulative") %>%
  filter(str_detect(name, "[:alpha:]*\\.[:alpha:]*\\.[0-9-]*\\.[:alpha:]*")) %>%
  separate("name", into = c("delete1", "sex", "age", "delete2"), sep = "\\.") %>%
  select(date, sex, age, cumulative) %>%
  mutate(cumulative = replace_na(cumulative, 0)) %>%
  group_by(sex, age) %>%
  mutate(daily = c(cumulative[1], diff(cumulative)))
df_tidy

## # A tibble: 12,663 x 5
## # Groups:   sex, age [27]
##    date       sex    age   cumulative daily
##    <date>     <chr>  <chr>      <dbl> <dbl>
##  1 2020-03-04 male   0-4            0     0
##  2 2020-03-04 male   5-14           0     0
##  3 2020-03-04 male   15-24          0     0
##  4 2020-03-04 male   25-34          0     0
##  5 2020-03-04 male   35-44          0     0
##  6 2020-03-04 male   45-54          0     0
##  7 2020-03-04 male   55-64          1     1
##  8 2020-03-04 male   65-74          0     0
##  9 2020-03-04 male   75-84          0     0
## 10 2020-03-04 female 0-4            0     0
## # ... with 12,653 more rows

df_tidy %>%
  filter(sex == "female", age == "25-34")

## # A tibble: 469 x 5
## # Groups:   sex, age [1]
##    date       sex    age   cumulative daily
##    <date>     <chr>  <chr>      <dbl> <dbl>
##  1 2020-03-04 female 25-34          0     0
##  2 2020-03-05 female 25-34          0     0
##  3 2020-03-06 female 25-34          1     1
##  4 2020-03-07 female 25-34          3     2
##  5 2020-03-08 female 25-34          3     0
##  6 2020-03-09 female 25-34          5     2
##  7 2020-03-10 female 25-34          8     3
##  8 2020-03-11 female 25-34         15     7
##  9 2020-03-12 female 25-34         19     4
## 10 2020-03-13 female 25-34         22     3
## # ... with 459 more rows
…
Če želimo dejanski izris grafa podatkov pa moramo podati še tri ključne elemente:

Podatke.

Tip grafa – Kako naj bodo podatki predstavljeni na grafu, lahko jih podamo tudi več.

Estetike – x-os, y-os, barve točk, skupine podatkov, itd.

Poglejmo si različne osnovne grafe na podatkih portugalskih požarov.

pozari <- read_csv2("./data-raw/forest-fires.csv")
pozari

## # A tibble: 517 x 13
##        X     Y month day   FFMC_index DMC_index DC_index ISI_index  temp    RH  wind  rain  area
##    <dbl> <dbl> <chr> <chr>      <dbl>     <dbl>    <dbl>     <dbl> <dbl> <dbl> <dbl> <dbl> <dbl>
##  1     7     5 mar   fri         86.2      26.2     94.3       5.1   8.2    51   6.7   0       0
##  2     7     4 oct   tue         90.6      35.4    669.        6.7  18      33   0.9   0       0
##  3     7     4 oct   sat         90.6      43.7    687.        6.7  14.6    33   1.3   0       0
##  4     8     6 mar   fri         91.7      33.3     77.5       9     8.3    97   4     0.2     0
##  5     8     6 mar   sun         89.3      51.3    102.        9.6  11.4    99   1.8   0       0
##  6     8     6 aug   sun         92.3      85.3    488        14.7  22.2    29   5.4   0       0
##  7     8     6 aug   mon         92.3      88.9    496.        8.5  24.1    27   3.1   0       0
##  8     8     6 aug   mon         91.5     145.     608.       10.7   8      86   2.2   0       0
##  9     8     6 sep   tue         91       130.     693.        7    13.1    63   5.4   0       0
## 10     7     5 sep   sat         92.5      88      699.        7.1  22.8    40   4     0       0
## # ... with 507 more rows
…
tib_dplyr  <- tibble(x = x, price = price, type = types)
dt_dtplyr  <- lazy_dt(data.table::data.table(x = x, price = price, 
                                             type = types))
dt_dtable  <- data.table::data.table(x = x, price = price, type = types)

# dplyr ------------------------------------------------------------------------
t1 <- Sys.time()
tib_dplyr %>% 
  group_by(type) %>% 
  summarise(mean_price = mean(price))

## # A tibble: 6,760 x 2
##    type  mean_price
##    <chr>      <dbl>
##  1 A.A.0      4999.
##  2 A.A.1      5001.
##  3 A.A.2      4998.
##  4 A.A.3      5000.
##  5 A.A.4      5000.
##  6 A.A.5      4999.
##  7 A.A.6      5000.
##  8 A.A.7      4999.
##  9 A.A.8      5000.
## 10 A.A.9      5002.
## # ... with 6,750 more rows
…
t2 <- Sys.time()
t2 - t1

## Time difference of 4.883885 secs

# dtplyr -----------------------------------------------------------------------
t1 <- Sys.time()
dt_dtplyr %>% 
  group_by(type) %>% 
  summarise(mean_price = mean(price)) %>%
  as_tibble()

## # A tibble: 6,760 x 2
##    type  mean_price
##    <chr>      <dbl>
##  1 A.A.0      4999.
##  2 A.A.1      5001.
##  3 A.A.2      4998.
##  4 A.A.3      5000.
##  5 A.A.4      5000.
##  6 A.A.5      4999.
##  7 A.A.6      5000.
##  8 A.A.7      4999.
##  9 A.A.8      5000.
## 10 A.A.9      5002.
## # ... with 6,750 more rows
…
## Warning: Missing values are always removed in SQL.
## Use `SUM(x, na.rm = TRUE)` to silence this warning
## This warning is displayed only once per session.

## <SQL>
## SELECT `sex`, `age`, SUM(`daily`) AS `sum(daily)`
## FROM `age-cases-clean`
## GROUP BY `sex`, `age`

Preostane nam še, da izvedemo te operacije na bazi. S collect() zberemo rezultate:

povzetek <- povzemi %>% collect()
povzetek

## # A tibble: 27 x 3
## # Groups:   sex [3]
##    sex    age   `sum(daily)`
##    <chr>  <chr>        <dbl>
##  1 female 0-4           1059
##  2 female 15-24        12768
##  3 female 25-34        20494
##  4 female 35-44        27100
##  5 female 45-54        26346
##  6 female 5-14          5283
##  7 female 55-64        17972
##  8 female 65-74         9686
##  9 female 75-84         7713
## 10 male   0-4           1207
## # ... with 17 more rows
…
