Poglavje 3 Nizi, kategorične spremenljivke in datumi | Urejanje podatkov
…
## [1] "paradixnik" "buxke"      "jabolka"    "paprika"    "jagode"

Podamo lahko tudi zamenjavo za več ujemanj:

str_replace_all(seznam, c("č" = "c", "š" = "s", "ž"= "z"))

## [1] "paradiznik" "bucke"      "jabolka"    "paprika"    "jagode"

Poglejmo si sedaj še uporabo na realnih podatkih. Najprej naložimo podatke:

ds_jobs <- read.csv2("./data-raw/DS-jobs.csv")
ds_jobs <- tibble(ds_jobs)
ds_jobs

## # A tibble: 4,523 x 17
##    Gender Country    Age EmploymentStatus     CurrentJobTitle   LanguageRecomme~
##    <chr>  <chr>    <int> <chr>                <chr>             <chr>           
##  1 Female Austral~    43 Employed full-time   Business Analyst  Python          
##  2 Male   Russia      33 Employed full-time   Software Develop~ Python          
##  3 Male   Taiwan      26 Employed full-time   Software Develop~ Python          
##  4 Male   United ~    25 Employed part-time   Researcher        Python          
##  5 Male   United ~    33 Employed full-time   Scientist/Resear~ Matlab          
##  6 Male   Czech R~    21 Employed part-time   Other             Python          
##  7 Male   Russia      22 Employed full-time   Data Analyst      Python          
##  8 Male   Netherl~    51 Employed full-time   Engineer          R               
##  9 Male   Colombia    34 Employed full-time   Data Scientist    Python          
## 10 Male   Germany     41 Independent contrac~ Data Scientist    Python          
## # ... with 4,513 more rows, and 11 more variables: FormalEducation <chr>,
## #   Major <chr>, CompensationAmount <dbl>, CompensationCurrency <chr>,
## #   TimeGatheringData <int>, TimeModelBuilding <dbl>, TimeProduction <dbl>,
## #   TimeVisualizing <dbl>, TimeFindingInsights <dbl>, TimeOtherSelect <int>,
## #   ExchangeRate <dbl>

Najbolj uporabna funkcija pri delu z nizi v podatkih je str_detect(), ki nam omogoča izbiro podmnožice vrstic. Pogosto jo kombiniramo z regularnimi izrazi. Poiščimo tiste vrstice, kjer imajo anketiranci več službenih nazivov. Ti so ločeni z znakom /.

ds_jobs %>% 
  select(CurrentJobTitle) %>% 
  filter(str_detect(CurrentJobTitle, "/"))

## # A tibble: 946 x 1
##    CurrentJobTitle                     
##    <chr>                               
##  1 Software Developer/Software Engineer
##  2 Software Developer/Software Engineer
##  3 Scientist/Researcher                
##  4 Software Developer/Software Engineer
##  5 Scientist/Researcher                
##  6 Scientist/Researcher                
##  7 Scientist/Researcher                
##  8 Scientist/Researcher                
##  9 Software Developer/Software Engineer
## 10 Scientist/Researcher                
## # ... with 936 more rows

Izberimo samo tiste vrstice, kjer se CurrentJobTitle začne z “Data” in se EmploymentStatus konča s “full-time”:

ds_jobs %>% 
  select(EmploymentStatus, CurrentJobTitle) %>% 
  filter(str_detect(CurrentJobTitle, "^Data"),
         str_detect(EmploymentStatus, "full-time$"))

## # A tibble: 1,679 x 2
##    EmploymentStatus   CurrentJobTitle
##    <chr>              <chr>          
##  1 Employed full-time Data Analyst   
##  2 Employed full-time Data Scientist 
##  3 Employed full-time Data Scientist 
##  4 Employed full-time Data Scientist 
##  5 Employed full-time Data Analyst   
##  6 Employed full-time Data Scientist 
##  7 Employed full-time Data Scientist 
##  8 Employed full-time Data Analyst   
##  9 Employed full-time Data Analyst   
## 10 Employed full-time Data Scientist 
## # ... with 1,669 more rows

Včasih so nizi v podatkih predolgi, oziroma lahko brez škode za pomen izbrišemo del niza. Najlažje to naredimo tako, da ga zamenjamo s praznim nizom. Izbrišimo podnize “Employed”:

ds_jobs <- ds_jobs %>% 
  mutate(EmploymentStatus = str_replace(EmploymentStatus, "Employed ", ""))
ds_jobs %>%
  select(EmploymentStatus, CurrentJobTitle)

## # A tibble: 4,523 x 2
##    EmploymentStatus                              CurrentJobTitle                
##    <chr>                                         <chr>                          
##  1 full-time                                     Business Analyst               
##  2 full-time                                     Software Developer/Software En~
##  3 full-time                                     Software Developer/Software En~
##  4 part-time                                     Researcher                     
##  5 full-time                                     Scientist/Researcher           
##  6 part-time                                     Other                          
##  7 full-time                                     Data Analyst                   
##  8 full-time                                     Engineer                       
##  9 full-time                                     Data Scientist                 
## 10 Independent contractor, freelancer, or self-~ Data Scientist                 
## # ... with 4,513 more rows

Sedaj imamo eno manjšo nekonsistentnost v podatkih, namreč nekateri nizi se začnejo z veliko začetnico, nekateri pa z malo. Spremenimo vse na malo začetnico:

ds_jobs <- ds_jobs %>% 
  mutate(EmploymentStatus = str_to_lower(EmploymentStatus))
ds_jobs %>%
  select(EmploymentStatus, CurrentJobTitle)

## # A tibble: 4,523 x 2
##    EmploymentStatus                              CurrentJobTitle                
##    <chr>                                         <chr>                          
##  1 full-time                                     Business Analyst               
##  2 full-time                                     Software Developer/Software En~
##  3 full-time                                     Software Developer/Software En~
##  4 part-time                                     Researcher                     
##  5 full-time                                     Scientist/Researcher           
##  6 part-time                                     Other                          
##  7 full-time                                     Data Analyst                   
##  8 full-time                                     Engineer                       
##  9 full-time                                     Data Scientist                 
## 10 independent contractor, freelancer, or self-~ Data Scientist                 
## # ... with 4,513 more rows

S funkcijo str_count() lahko uporabimo, da anketirancem dodamo stolpec s številom službenih nazivov:

ds_jobs %>% 
  select(CurrentJobTitle) %>% 
  mutate(NumberOfJobTitles = str_count(CurrentJobTitle, "/") + 1)

## # A tibble: 4,523 x 2
##    CurrentJobTitle                      NumberOfJobTitles
##    <chr>                                            <dbl>
##  1 Business Analyst                                     1
##  2 Software Developer/Software Engineer                 2
##  3 Software Developer/Software Engineer                 2
##  4 Researcher                                           1
##  5 Scientist/Researcher                                 2
##  6 Other                                                1
##  7 Data Analyst                                         1
##  8 Engineer                                             1
##  9 Data Scientist                                       1
## 10 Data Scientist                                       1
## # ... with 4,513 more rows

Poskušajmo razdeliti CurrentJobTitle na FirstTitle in SecondTitle, pri tem naj se naziva ponovita, če ima anketiranec samo enega.

ds_jobs %>% 
  select(CurrentJobTitle) %>% 
  mutate(FirstTitle  = str_extract(CurrentJobTitle, "^[^/]*"),
         SecondTitle = str_extract(CurrentJobTitle, "[^/]*$"))

## # A tibble: 4,523 x 3
##    CurrentJobTitle                      FirstTitle         SecondTitle      
##    <chr>                                <chr>              <chr>            
##  1 Business Analyst                     Business Analyst   Business Analyst 
##  2 Software Developer/Software Engineer Software Developer Software Engineer
##  3 Software Developer/Software Engineer Software Developer Software Engineer
##  4 Researcher                           Researcher         Researcher       
##  5 Scientist/Researcher                 Scientist          Researcher       
##  6 Other                                Other              Other            
##  7 Data Analyst                         Data Analyst       Data Analyst     
##  8 Engineer                             Engineer           Engineer         
##  9 Data Scientist                       Data Scientist     Data Scientist   
## 10 Data Scientist                       Data Scientist     Data Scientist   
## # ... with 4,513 more rows
…
Poleg prednosti, ki smo jih že omenili (varovanje pred napakami in smiselna razvrstitev nivojev) imajo faktorji tudi posebno vlogo pri raznih statističnih modelih in modelih strojnega učenja. Nekatere metode eksplicitno zahtevajo faktorje. Prav tako razlikujejo med nominalnimi in ordinalnimi faktorji, kar se pozna na rezultatih. Relativno preprost primer tega je linearna regresija, ki pa je izven obsega te delavnice. Vsekakor pa si je to vredno zapomniti, v kolikor se boste kdaj ukvajrali s podobnimi modeli in boste želeli uporabiti kategorične spremenljivke.

Poglejmo si uporabo faktorjev na realni podatkovni množici. Ponovno bomo delali s podatki o zaposlitvah na področju podatkovnih ved. Preberimo podatke in ponovimo nekaj operacij, ki smo jih spoznali na prvem predavanju. Prav tako bomo izbrali samo podmnožico stolpcev za bolj jasen prikaz.

library(tidyverse)
ds_jobs <- read_csv2("./data-raw/DS-jobs.csv") %>%
  select(Country, Age, EmploymentStatus,
         FormalEducation, CompensationAmount, ExchangeRate) %>%
  filter(!is.na(ExchangeRate)) %>%
  mutate(CompensationUSD = CompensationAmount * ExchangeRate) %>%
  filter(CompensationUSD <= 2500000, CompensationUSD >= 10000)
ds_jobs

## # A tibble: 3,186 x 7
##    Country    Age EmploymentStatus FormalEducation CompensationAmo~ ExchangeRate
##    <chr>    <dbl> <chr>            <chr>                      <dbl>        <dbl>
##  1 Austral~    43 Employed full-t~ Bachelor's deg~            80000     0.802   
##  2 Russia      33 Employed full-t~ Bachelor's deg~          1200000     0.0174  
##  3 Taiwan      26 Employed full-t~ Master's degree          1100000     0.0333  
##  4 United ~    25 Employed part-t~ Bachelor's deg~            20000     1       
##  5 United ~    33 Employed full-t~ Doctoral degree           100000     1       
##  6 Russia      22 Employed full-t~ Bachelor's deg~           624000     0.0174  
##  7 Colombia    34 Employed full-t~ Master's degree        156000000     0.000342
##  8 Germany     41 Independent con~ I did not comp~           150000     1.20    
##  9 Poland      29 Employed full-t~ Master's degree           126000     0.281   
## 10 United ~    35 Employed full-t~ Doctoral degree           133000     1       
## # ... with 3,176 more rows, and 1 more variable: CompensationUSD <dbl>

Imamo 3 spremenljivke, ki bi jih bilo smiselno shraniti kot faktorje – Country, EmploymentStatus in FormalEducation. Pretvorimo sedaj ti spremenljivki v faktorje. Pri tem pustimo kar privzeto nastavitev, da se kot nivoji uporabijo vse vrednosti v stolpcih.

library(tidyverse)
ds_jobs <- ds_jobs %>%
  mutate(Country          = factor(Country),
         EmploymentStatus = factor(EmploymentStatus),
         FormalEducation  = factor(FormalEducation))
ds_jobs

## # A tibble: 3,186 x 7
##    Country    Age EmploymentStatus FormalEducation CompensationAmo~ ExchangeRate
##    <fct>    <dbl> <fct>            <fct>                      <dbl>        <dbl>
##  1 Austral~    43 Employed full-t~ Bachelor's deg~            80000     0.802   
##  2 Russia      33 Employed full-t~ Bachelor's deg~          1200000     0.0174  
##  3 Taiwan      26 Employed full-t~ Master's degree          1100000     0.0333  
##  4 United ~    25 Employed part-t~ Bachelor's deg~            20000     1       
##  5 United ~    33 Employed full-t~ Doctoral degree           100000     1       
##  6 Russia      22 Employed full-t~ Bachelor's deg~           624000     0.0174  
##  7 Colombia    34 Employed full-t~ Master's degree        156000000     0.000342
##  8 Germany     41 Independent con~ I did not comp~           150000     1.20    
##  9 Poland      29 Employed full-t~ Master's degree           126000     0.281   
## 10 United ~    35 Employed full-t~ Doctoral degree           133000     1       
## # ... with 3,176 more rows, and 1 more variable: CompensationUSD <dbl>
…
Kaj se zgodi, če želimo v tibblu spremeniti vrednost faktorja, v neko vrednost, ki je ni v tem faktorju? Recimo, da želimo v 2. vrstici spremeniti državo v Narnia:

ds_jobs2 <- ds_jobs
ds_jobs2$Country[2] <- "Narnia"

## Warning in `[<-.factor`(`*tmp*`, 2, value = structure(c(2L, NA, 47L, 51L, :
## invalid factor level, NA generated

ds_jobs2

## # A tibble: 3,186 x 7
##    Country    Age EmploymentStatus FormalEducation CompensationAmo~ ExchangeRate
##    <fct>    <dbl> <fct>            <fct>                      <dbl>        <dbl>
##  1 Austral~    43 Employed full-t~ Bachelor's deg~            80000     0.802   
##  2 <NA>        33 Employed full-t~ Bachelor's deg~          1200000     0.0174  
##  3 Taiwan      26 Employed full-t~ Master's degree          1100000     0.0333  
##  4 United ~    25 Employed part-t~ Bachelor's deg~            20000     1       
##  5 United ~    33 Employed full-t~ Doctoral degree           100000     1       
##  6 Russia      22 Employed full-t~ Bachelor's deg~           624000     0.0174  
##  7 Colombia    34 Employed full-t~ Master's degree        156000000     0.000342
##  8 Germany     41 Independent con~ I did not comp~           150000     1.20    
##  9 Poland      29 Employed full-t~ Master's degree           126000     0.281   
## 10 United ~    35 Employed full-t~ Doctoral degree           133000     1       
## # ... with 3,176 more rows, and 1 more variable: CompensationUSD <dbl>

Ker Narnia ni nivo v faktorju, se nadomesti z NA. Če želimo dodati nov nivo temu faktorju, uporabimo fct_expand():

ds_jobs2 <- ds_jobs %>%
  mutate(Country = fct_expand(Country, "Narnia"))
ds_jobs2$Country[2] <- "Narnia"
ds_jobs2

## # A tibble: 3,186 x 7
##    Country    Age EmploymentStatus FormalEducation CompensationAmo~ ExchangeRate
##    <fct>    <dbl> <fct>            <fct>                      <dbl>        <dbl>
##  1 Austral~    43 Employed full-t~ Bachelor's deg~            80000     0.802   
##  2 Narnia      33 Employed full-t~ Bachelor's deg~          1200000     0.0174  
##  3 Taiwan      26 Employed full-t~ Master's degree          1100000     0.0333  
##  4 United ~    25 Employed part-t~ Bachelor's deg~            20000     1       
##  5 United ~    33 Employed full-t~ Doctoral degree           100000     1       
##  6 Russia      22 Employed full-t~ Bachelor's deg~           624000     0.0174  
##  7 Colombia    34 Employed full-t~ Master's degree        156000000     0.000342
##  8 Germany     41 Independent con~ I did not comp~           150000     1.20    
##  9 Poland      29 Employed full-t~ Master's degree           126000     0.281   
## 10 United ~    35 Employed full-t~ Doctoral degree           133000     1       
## # ... with 3,176 more rows, and 1 more variable: CompensationUSD <dbl>
…
flights_datetime <- flights %>% select(year, month, day, hour, minute) %>%
  mutate(DepartureTime = make_datetime(year, month, day, hour, minute))
flights_datetime

## # A tibble: 336,776 x 6
##     year month   day  hour minute DepartureTime      
##    <int> <int> <int> <dbl>  <dbl> <dttm>             
##  1  2013     1     1     5     15 2013-01-01 05:15:00
##  2  2013     1     1     5     29 2013-01-01 05:29:00
##  3  2013     1     1     5     40 2013-01-01 05:40:00
##  4  2013     1     1     5     45 2013-01-01 05:45:00
##  5  2013     1     1     6      0 2013-01-01 06:00:00
##  6  2013     1     1     5     58 2013-01-01 05:58:00
##  7  2013     1     1     6      0 2013-01-01 06:00:00
##  8  2013     1     1     6      0 2013-01-01 06:00:00
##  9  2013     1     1     6      0 2013-01-01 06:00:00
## 10  2013     1     1     6      0 2013-01-01 06:00:00
## # ... with 336,766 more rows

head(flights_datetime$DepartureTime)

## [1] "2013-01-01 05:15:00 UTC" "2013-01-01 05:29:00 UTC"
## [3] "2013-01-01 05:40:00 UTC" "2013-01-01 05:45:00 UTC"
## [5] "2013-01-01 06:00:00 UTC" "2013-01-01 05:58:00 UTC"

Ali opazimo kakšno težavo? datume smo prebrali v časovni coni UTC, so pa podani v lokalni časovni coni. Podatkov torej nismo pretvorili pravilno! Poizkusimo še enkrat:

flights_datetime <- flights %>% select(year, month, day, hour, minute) %>%
  mutate(DepartureTime = make_datetime(year, month, day, hour, minute,
                                       tz = "America/New_York"))
flights_datetime

## # A tibble: 336,776 x 6
##     year month   day  hour minute DepartureTime      
##    <int> <int> <int> <dbl>  <dbl> <dttm>             
##  1  2013     1     1     5     15 2013-01-01 05:15:00
##  2  2013     1     1     5     29 2013-01-01 05:29:00
##  3  2013     1     1     5     40 2013-01-01 05:40:00
##  4  2013     1     1     5     45 2013-01-01 05:45:00
##  5  2013     1     1     6      0 2013-01-01 06:00:00
##  6  2013     1     1     5     58 2013-01-01 05:58:00
##  7  2013     1     1     6      0 2013-01-01 06:00:00
##  8  2013     1     1     6      0 2013-01-01 06:00:00
##  9  2013     1     1     6      0 2013-01-01 06:00:00
## 10  2013     1     1     6      0 2013-01-01 06:00:00
## # ... with 336,766 more rows
…
x2 <- read_list[["x"]]
x2

## [1] 3 6 3 7

my_datetime2 <- read_list[["some_datetime"]]
my_datetime2

## [1] "2021-06-08 11:05:30 CEST"

ds_jobs2 <- read_list[["ds_jobs"]]
ds_jobs2

## # A tibble: 3,186 x 8
##    Country    Age EmploymentStatus FormalEducation CompensationAmo~ ExchangeRate
##    <fct>    <dbl> <fct>            <fct>                      <dbl>        <dbl>
##  1 Austral~    43 full-time        Bachelor's deg~            80000     0.802   
##  2 Russia      33 full-time        Bachelor's deg~          1200000     0.0174  
##  3 Taiwan      26 full-time        Master's degree          1100000     0.0333  
##  4 United ~    25 part-time        Bachelor's deg~            20000     1       
##  5 United ~    33 full-time        Doctoral degree           100000     1       
##  6 Russia      22 full-time        Bachelor's deg~           624000     0.0174  
##  7 Colombia    34 full-time        Master's degree        156000000     0.000342
##  8 Germany     41 other            I did not comp~           150000     1.20    
##  9 Poland      29 full-time        Master's degree           126000     0.281   
## 10 United ~    35 full-time        Doctoral degree           133000     1       
## # ... with 3,176 more rows, and 2 more variables: CompensationUSD <dbl>,
## #   AgeInterval <fct>
…
