Poglavje 3 Nizi, kategorične spremenljivke in datumi (OSNUTEK) | Urejanje podatkov
…
Poleg prednosti, ki smo jih že omenili (varovanje pred napakami in smiselna razvrstitev nivojev) imajo faktorji tudi posebno vlogo pri raznih statističnih modelih in modelih strojnega učenja. Nekatere metode eksplicitno zahtevajo faktorje. Prav tako razlikujejo med nominalnimi in ordinalnimi faktorji, kar se pozna na rezultatih. Relativno preprost primer tega je linearna regresija, ki pa je izven obsega te delavnice. Vsekakor pa si je to vredno zapomniti, v kolikor se boste kdaj ukvajrali s podobnimi modeli in boste želeli uporabiti kategorične spremenljivke.

Poglejmo si uporabo faktorjev na realni podatkovni množici. Ponovno bomo delali s podatki o zaposlitvah na področju podatkovnih ved. Preberimo podatke in ponovimo nekaj operacij, ki smo jih spoznali na prvem predavanju. Prav tako bomo izbrali samo podmnožico stolpcev za bolj jasen prikaz.

library(tidyverse)
ds_jobs <- read_csv2("./data-raw/DS-jobs.csv") %>%
  select(Country, Age, EmploymentStatus,
         FormalEducation, CompensationAmount, ExchangeRate) %>%
  filter(!is.na(ExchangeRate)) %>%
  mutate(CompensationUSD = CompensationAmount * ExchangeRate) %>%
  filter(CompensationUSD <= 2500000, CompensationUSD >= 10000)
ds_jobs

## # A tibble: 3,186 x 7
##    Country    Age EmploymentStatus FormalEducation CompensationAmo~ ExchangeRate
##    <chr>    <dbl> <chr>            <chr>                      <dbl>        <dbl>
##  1 Austral~    43 Employed full-t~ Bachelor's deg~            80000     0.802   
##  2 Russia      33 Employed full-t~ Bachelor's deg~          1200000     0.0174  
##  3 Taiwan      26 Employed full-t~ Master's degree          1100000     0.0333  
##  4 United ~    25 Employed part-t~ Bachelor's deg~            20000     1       
##  5 United ~    33 Employed full-t~ Doctoral degree           100000     1       
##  6 Russia      22 Employed full-t~ Bachelor's deg~           624000     0.0174  
##  7 Colombia    34 Employed full-t~ Master's degree        156000000     0.000342
##  8 Germany     41 Independent con~ I did not comp~           150000     1.20    
##  9 Poland      29 Employed full-t~ Master's degree           126000     0.281   
## 10 United ~    35 Employed full-t~ Doctoral degree           133000     1       
## # ... with 3,176 more rows, and 1 more variable: CompensationUSD <dbl>

Imamo dve spremenljivki, ki bi jih bilo smiselno shraniti kot faktorje – EmploymentStatus in FormalEducation. Pretvorimo sedaj ti spremenljivki v faktorje. Pri tem pustimo kar privzeto nastavitev, da se kot nivoji uporabijo vse vrednosti v stolpcih.

library(tidyverse)
ds_jobs <- ds_jobs %>%
  mutate(EmploymentStatus = factor(EmploymentStatus),
         FormalEducation = factor(FormalEducation))
ds_jobs

## # A tibble: 3,186 x 7
##    Country    Age EmploymentStatus FormalEducation CompensationAmo~ ExchangeRate
##    <chr>    <dbl> <fct>            <fct>                      <dbl>        <dbl>
##  1 Austral~    43 Employed full-t~ Bachelor's deg~            80000     0.802   
##  2 Russia      33 Employed full-t~ Bachelor's deg~          1200000     0.0174  
##  3 Taiwan      26 Employed full-t~ Master's degree          1100000     0.0333  
##  4 United ~    25 Employed part-t~ Bachelor's deg~            20000     1       
##  5 United ~    33 Employed full-t~ Doctoral degree           100000     1       
##  6 Russia      22 Employed full-t~ Bachelor's deg~           624000     0.0174  
##  7 Colombia    34 Employed full-t~ Master's degree        156000000     0.000342
##  8 Germany     41 Independent con~ I did not comp~           150000     1.20    
##  9 Poland      29 Employed full-t~ Master's degree           126000     0.281   
## 10 United ~    35 Employed full-t~ Doctoral degree           133000     1       
## # ... with 3,176 more rows, and 1 more variable: CompensationUSD <dbl>
…
x2 <- read_list[["x"]]
x2

## [1] 3 6 3 7

my_datetime2 <- read_list[["some_datetime"]]
my_datetime2

## [1] "2021-06-08 11:05:30 CEST"

ds_jobs2 <- read_list[["ds_jobs"]]
ds_jobs2

## # A tibble: 3,186 x 8
##    Country    Age EmploymentStatus FormalEducation CompensationAmo~ ExchangeRate
##    <chr>    <dbl> <fct>            <fct>                      <dbl>        <dbl>
##  1 Austral~    43 full-time        Bachelor's deg~            80000     0.802   
##  2 Russia      33 full-time        Bachelor's deg~          1200000     0.0174  
##  3 Taiwan      26 full-time        Master's degree          1100000     0.0333  
##  4 United ~    25 part-time        Bachelor's deg~            20000     1       
##  5 United ~    33 full-time        Doctoral degree           100000     1       
##  6 Russia      22 full-time        Bachelor's deg~           624000     0.0174  
##  7 Colombia    34 full-time        Master's degree        156000000     0.000342
##  8 Germany     41 other            I did not comp~           150000     1.20    
##  9 Poland      29 full-time        Master's degree           126000     0.281   
## 10 United ~    35 full-time        Doctoral degree           133000     1       
## # ... with 3,176 more rows, and 2 more variables: CompensationUSD <dbl>,
## #   AgeInterval <fct>
…
