Poglavje 1 Slovnica ravnanja s podatki | Urejanje podatkov
…
Spremenljivka ds_jobs je tipa data.frame. To je osnovna oblika, v kateri v R hranimo razpredelnice. V tidyverse obstaja paket tibble, ki je namenjen sodobni predstavitvi razpredelnice. Glavna funkcionalnost tega paketa je objekt tibble, ki predstavlja nadgradnjo data frame. V preostanku knjige bomo za objekte data.frame uporabljali izraz “data frame” in za objekte tipa tibble izraz “tibble.” Večina funkcij v tidyverse sicer lahko kot vhodni podatek prejme data frame, ampak ga nekatere potem samodejno pretvorijo v tibble. Kot dobro prakso predlagamo delo izključno s tibble. Poleg kompatibilnosti s funkcijami tidyverse je še nekaj drugih razlik v primerjavi z data frame, večino le-teh bomo spoznali v preostanku knjige.

Pretvorimo sedaj ta data frame v tibble s funkcijo as_tibble().

library(tidyverse)
ds_jobs <- as_tibble(ds_jobs)
ds_jobs

## # A tibble: 4,523 x 17
##    Gender Country    Age EmploymentStatus     CurrentJobTitle   LanguageRecomme~
##    <chr>  <chr>    <int> <chr>                <chr>             <chr>           
##  1 Female Austral~    43 Employed full-time   Business Analyst  Python          
##  2 Male   Russia      33 Employed full-time   Software Develop~ Python          
##  3 Male   Taiwan      26 Employed full-time   Software Develop~ Python          
##  4 Male   United ~    25 Employed part-time   Researcher        Python          
##  5 Male   United ~    33 Employed full-time   Scientist/Resear~ Matlab          
##  6 Male   Czech R~    21 Employed part-time   Other             Python          
##  7 Male   Russia      22 Employed full-time   Data Analyst      Python          
##  8 Male   Netherl~    51 Employed full-time   Engineer          R               
##  9 Male   Colombia    34 Employed full-time   Data Scientist    Python          
## 10 Male   Germany     41 Independent contrac~ Data Scientist    Python          
## # ... with 4,513 more rows, and 11 more variables: FormalEducation <chr>,
## #   Major <chr>, CompensationAmount <dbl>, CompensationCurrency <chr>,
## #   TimeGatheringData <int>, TimeModelBuilding <dbl>, TimeProduction <dbl>,
## #   TimeVisualizing <dbl>, TimeFindingInsights <dbl>, TimeOtherSelect <int>,
## #   ExchangeRate <dbl>
…
Informacije o tem, ali funkcija vsebuje maskiranje podatkov ali urejeno izbiranje, lahko najdemo v datoteki s pomočjo pod razdelkom Arguments.

1.4 Izbira vrstic s filter()

S funkcijo filter() izbiramo podmnožico vrstic glede na izbrane pogoje. Sintaksa je:

filter(<tibble>, <pogoj1>, <pogoj2>, ...)

Kot prvi argument podamo tibble s podatki, potem pa z vejicami ločene pogoje. Izberimo vse osebe mlajše od 30 let:

library(dplyr)
filter(ds_jobs, Age < 30)

## # A tibble: 1,729 x 17
##    Gender Country     Age EmploymentStatus CurrentJobTitle     LanguageRecommen~
##    <chr>  <chr>     <int> <chr>            <chr>               <chr>            
##  1 Male   Taiwan       26 Employed full-t~ Software Developer~ Python           
##  2 Male   United S~    25 Employed part-t~ Researcher          Python           
##  3 Male   Czech Re~    21 Employed part-t~ Other               Python           
##  4 Male   Russia       22 Employed full-t~ Data Analyst        Python           
##  5 Male   Poland       29 Employed full-t~ Software Developer~ Python           
##  6 Male   Other        28 Employed full-t~ Data Scientist      R                
##  7 Male   Mexico       26 Employed part-t~ Data Scientist      Python           
##  8 Male   Singapore    24 Employed full-t~ Data Analyst        Python           
##  9 Male   India        29 Employed full-t~ Data Scientist      R                
## 10 Male   United S~    25 Employed full-t~ Engineer            Python           
## # ... with 1,719 more rows, and 11 more variables: FormalEducation <chr>,
## #   Major <chr>, CompensationAmount <dbl>, CompensationCurrency <chr>,
## #   TimeGatheringData <int>, TimeModelBuilding <dbl>, TimeProduction <dbl>,
## #   TimeVisualizing <dbl>, TimeFindingInsights <dbl>, TimeOtherSelect <int>,
## #   ExchangeRate <dbl>

Več pogojev ločimo z vejico, kadar želimo, da veljajo vsi pogoji (enakovredno uporabi operatorja in – & pri naštevanju pogojev). Poglejmo si vse osebe mlajše od 30 let, ki prihajajo iz Nemčije:

filter(ds_jobs, Age < 30, Country == "Germany")

## # A tibble: 42 x 17
##    Gender Country   Age EmploymentStatus      CurrentJobTitle   LanguageRecomme~
##    <chr>  <chr>   <int> <chr>                 <chr>             <chr>           
##  1 Female Germany    24 Employed part-time    Scientist/Resear~ R               
##  2 Male   Germany    28 Employed full-time    Scientist/Resear~ Python          
##  3 Male   Germany    24 Independent contract~ Data Scientist    Python          
##  4 Female Germany    29 Employed full-time    Business Analyst  SQL             
##  5 Male   Germany    26 Employed part-time    Researcher        Python          
##  6 Male   Germany    27 Employed full-time    Data Scientist    Python          
##  7 Female Germany    26 Employed part-time    Statistician      R               
##  8 Male   Germany    26 Independent contract~ Data Scientist    Python          
##  9 Male   Germany    29 Employed full-time    Machine Learning~ Python          
## 10 Male   Germany    25 Employed full-time    Data Scientist    Python          
## # ... with 32 more rows, and 11 more variables: FormalEducation <chr>,
## #   Major <chr>, CompensationAmount <dbl>, CompensationCurrency <chr>,
## #   TimeGatheringData <int>, TimeModelBuilding <dbl>, TimeProduction <dbl>,
## #   TimeVisualizing <dbl>, TimeFindingInsights <dbl>, TimeOtherSelect <int>,
## #   ExchangeRate <dbl>

V kolikor želimo, da velja vsaj eden izmed pogojev, moramo uporabiti operator ali – |. Poglejmo si vse osebe mlajše od 30 ali starejše od 50 let:

filter(ds_jobs, Age < 30 | Age > 50)

## # A tibble: 2,006 x 17
##    Gender Country     Age EmploymentStatus CurrentJobTitle     LanguageRecommen~
##    <chr>  <chr>     <int> <chr>            <chr>               <chr>            
##  1 Male   Taiwan       26 Employed full-t~ Software Developer~ Python           
##  2 Male   United S~    25 Employed part-t~ Researcher          Python           
##  3 Male   Czech Re~    21 Employed part-t~ Other               Python           
##  4 Male   Russia       22 Employed full-t~ Data Analyst        Python           
##  5 Male   Netherla~    51 Employed full-t~ Engineer            R                
##  6 Male   Poland       29 Employed full-t~ Software Developer~ Python           
##  7 Male   Other        28 Employed full-t~ Data Scientist      R                
##  8 Male   Mexico       26 Employed part-t~ Data Scientist      Python           
##  9 Male   Singapore    24 Employed full-t~ Data Analyst        Python           
## 10 Male   India        29 Employed full-t~ Data Scientist      R                
## # ... with 1,996 more rows, and 11 more variables: FormalEducation <chr>,
## #   Major <chr>, CompensationAmount <dbl>, CompensationCurrency <chr>,
## #   TimeGatheringData <int>, TimeModelBuilding <dbl>, TimeProduction <dbl>,
## #   TimeVisualizing <dbl>, TimeFindingInsights <dbl>, TimeOtherSelect <int>,
## #   ExchangeRate <dbl>

Če želimo nek kategorični stolpec pogojiti z večimi vrednostmi (na primer udeležence iz večih držav), lahko namesto večih | uporabimo operator %in%, ki preveri, če je element del množice:

filter(ds_jobs, Country %in% c("Germany", "Canada", "Ireland"))

## # A tibble: 306 x 17
##    Gender   Country   Age EmploymentStatus     CurrentJobTitle  LanguageRecomme~
##    <chr>    <chr>   <int> <chr>                <chr>            <chr>           
##  1 Male     Germany    41 Independent contrac~ Data Scientist   Python          
##  2 Female   Germany    49 Employed part-time   Scientist/Resea~ Python          
##  3 Male     Germany    44 Employed full-time   Other            Python          
##  4 A diffe~ Canada     23 Employed full-time   Scientist/Resea~ Python          
##  5 Female   Germany    24 Employed part-time   Scientist/Resea~ R               
##  6 Male     Canada     52 Employed full-time   Software Develo~ Python          
##  7 Male     Ireland    27 Employed full-time   Data Scientist   Python          
##  8 Male     Canada     24 Employed full-time   Business Analyst Python          
##  9 Male     Canada     46 Employed full-time   Data Scientist   Python          
## 10 Male     Canada     31 Employed full-time   Data Analyst     R               
## # ... with 296 more rows, and 11 more variables: FormalEducation <chr>,
## #   Major <chr>, CompensationAmount <dbl>, CompensationCurrency <chr>,
## #   TimeGatheringData <int>, TimeModelBuilding <dbl>, TimeProduction <dbl>,
## #   TimeVisualizing <dbl>, TimeFindingInsights <dbl>, TimeOtherSelect <int>,
## #   ExchangeRate <dbl>
…
ds_jobs <- filter(ds_jobs, !is.na(ExchangeRate))

Podobno kot v zgornjem primeru lahko v pogoju nastopa poljubna funkcija.

1.5 Izbira stolpcev s select()

S funkcijo select() izbiramo podmnožico stolpcev. Osnovna sintaksa je:

filter(<tibble>, <stolpec1>, <stolpec2>, ...)

Izberimo sedaj stolpce Country, Age in EmploymentStatus.

select(ds_jobs, Country, Age, EmploymentStatus)

## # A tibble: 3,781 x 3
##    Country          Age EmploymentStatus                                    
##    <chr>          <int> <chr>                                               
##  1 Australia         43 Employed full-time                                  
##  2 Russia            33 Employed full-time                                  
##  3 Taiwan            26 Employed full-time                                  
##  4 United States     25 Employed part-time                                  
##  5 United States     33 Employed full-time                                  
##  6 Czech Republic    21 Employed part-time                                  
##  7 Russia            22 Employed full-time                                  
##  8 Colombia          34 Employed full-time                                  
##  9 Germany           41 Independent contractor, freelancer, or self-employed
## 10 Poland            29 Employed full-time                                  
## # ... with 3,771 more rows

Izberimo vse stolpce razen teh treh stolpcev. Za to enostavno dodamo minus pred imenom stolpca, ki ga želimo izločiti:

select(ds_jobs, -Country, -Age, -EmploymentStatus)

## # A tibble: 3,781 x 14
##    Gender CurrentJobTitle    LanguageRecommen~ FormalEducation       Major      
##    <chr>  <chr>              <chr>             <chr>                 <chr>      
##  1 Female Business Analyst   Python            Bachelor's degree     ""         
##  2 Male   Software Develope~ Python            Bachelor's degree     "Other"    
##  3 Male   Software Develope~ Python            Master's degree       "Computer ~
##  4 Male   Researcher         Python            Bachelor's degree     "Physics"  
##  5 Male   Scientist/Researc~ Matlab            Doctoral degree       "Electrica~
##  6 Male   Other              Python            Some college/univers~ "Computer ~
##  7 Male   Data Analyst       Python            Bachelor's degree     "Informati~
##  8 Male   Data Scientist     Python            Master's degree       "Computer ~
##  9 Male   Data Scientist     Python            I did not complete a~ ""         
## 10 Male   Software Develope~ Python            Master's degree       "Computer ~
## # ... with 3,771 more rows, and 9 more variables: CompensationAmount <dbl>,
## #   CompensationCurrency <chr>, TimeGatheringData <int>,
## #   TimeModelBuilding <dbl>, TimeProduction <dbl>, TimeVisualizing <dbl>,
## #   TimeFindingInsights <dbl>, TimeOtherSelect <int>, ExchangeRate <dbl>

Izberimo vse stolpce med Country in Major. Podobno kot v R 1:10 našteje vsa cela števila med 1 in 10, operator : v tidyverse izbere vse stolpce med Country in Major:

select(ds_jobs, Country:Major)

## # A tibble: 3,781 x 7
##    Country     Age EmploymentStatus        CurrentJobTitle     LanguageRecommen~
##    <chr>     <int> <chr>                   <chr>               <chr>            
##  1 Australia    43 Employed full-time      Business Analyst    Python           
##  2 Russia       33 Employed full-time      Software Developer~ Python           
##  3 Taiwan       26 Employed full-time      Software Developer~ Python           
##  4 United S~    25 Employed part-time      Researcher          Python           
##  5 United S~    33 Employed full-time      Scientist/Research~ Matlab           
##  6 Czech Re~    21 Employed part-time      Other               Python           
##  7 Russia       22 Employed full-time      Data Analyst        Python           
##  8 Colombia     34 Employed full-time      Data Scientist      Python           
##  9 Germany      41 Independent contractor~ Data Scientist      Python           
## 10 Poland       29 Employed full-time      Software Developer~ Python           
## # ... with 3,771 more rows, and 2 more variables: FormalEducation <chr>,
## #   Major <chr>

Izberimo vse stolpce, ki se začnejo z besedo Time. Za to bomo uporabili funkcijo starts_with(). Ta funkcija je t. i. selection helper, kar pomeni, da jo lahko uporabimo le znotraj funkcij, ki omogočajo urejeno izbiro in nam omogoča lažjo izbiro na podlagi nekega pogoja. V tem primeru je ta pogoj, da se beseda začne na določen niz:

select(ds_jobs, starts_with("Time"))

## # A tibble: 3,781 x 6
##    TimeGatheringData TimeModelBuilding TimeProduction TimeVisualizing
##                <int>             <dbl>          <dbl>           <dbl>
##  1                60                10              5              15
##  2                40                30             15              10
##  3                35                20             25              10
##  4                 0                80              0              20
##  5                 0                 0              0               0
##  6                20                60             20               0
##  7                50                20             10               5
##  8                60                10             20               5
##  9                50                10             20              10
## 10                25                20             25              20
## # ... with 3,771 more rows, and 2 more variables: TimeFindingInsights <dbl>,
## #   TimeOtherSelect <int>
…
arrange(<tibble>, <stolpec1>, <stolpec2>, ...)

kjer stolpci predstavljajo vrednosti, po katerih želimo urediti tibble.

Ustvarimo najprej nov tibble, v katerem bomo izbrali podmnožico stolpcev.

ds_jobs_tmp <- select(ds_jobs, CurrentJobTitle, Country, 
                      CompensationCurrency, Age, CompensationAmount)

Uredimo sedaj podatke glede na leta:

arrange(ds_jobs_tmp, Age)

## # A tibble: 3,781 x 5
##    CurrentJobTitle          Country    CompensationCurre~   Age CompensationAmo~
##    <chr>                    <chr>      <chr>              <int>            <dbl>
##  1 Predictive Modeler       Australia  AUD                    0            78000
##  2 Scientist/Researcher     United St~ USD                    1           100000
##  3 Programmer               Other      GBP                   11                0
##  4 Data Scientist           United St~ USD                   16            50000
##  5 Software Developer/Soft~ Russia     USD                   18            40000
##  6 Programmer               Other      USD                   18             1000
##  7 Machine Learning Engine~ Other      USD                   19            30000
##  8 Programmer               Russia     USD                   19            40000
##  9 Scientist/Researcher     Canada     CAD                   19                0
## 10 Computer Scientist       Brazil     BRL                   19              400
## # ... with 3,771 more rows

Opazimo, da imamo nekaj neveljavnih starosti, na primer 0 in 1, najverjetneje tudi 11. Prav tako imamo nekaj nesmiselnih vrednosti v stolpcu o plači. Pri celostni analizi bi seveda raziskali, zakaj je prišlo do takih vrednosti, oziroma bi jih izločili iz analize. Za namen spoznavanja ravnanja s podatki in dplyr to ni pomembno, tako da temu ne bomo posvečali pozornosti. Bralcem pa predlagamo, naj razmislijo, kako bi se tega lotili z že naučenimi koncepti.

Če želimo podatke urediti padajoče, potem uporabimo funkcijo desc():

arrange(ds_jobs_tmp, desc(Age))

## # A tibble: 3,781 x 5
##    CurrentJobTitle          Country    CompensationCurre~   Age CompensationAmo~
##    <chr>                    <chr>      <chr>              <int>            <dbl>
##  1 Statistician             United Ki~ ILS                  100     100000000000
##  2 Other                    Other      EUR                   99            15000
##  3 Researcher               Portugal   EUR                   78            63000
##  4 Data Scientist           Canada     USD                   75              110
##  5 Software Developer/Soft~ Netherlan~ EUR                   73            40000
##  6 Data Analyst             Russia     USD                   70            14000
##  7 Business Analyst         United St~ USD                   70           130000
##  8 Machine Learning Engine~ United Ki~ GBP                   70            40000
##  9 Scientist/Researcher     United St~ USD                   69           200000
## 10 Business Analyst         United St~ USD                   68           125000
## # ... with 3,771 more rows

Uredimo lahko tudi glede na več stolpcev, kjer se najprej uredi po prvem zapisanem, nato drugem, itd.:

arrange(ds_jobs_tmp, Age, CompensationAmount)

## # A tibble: 3,781 x 5
##    CurrentJobTitle          Country    CompensationCurre~   Age CompensationAmo~
##    <chr>                    <chr>      <chr>              <int>            <dbl>
##  1 Predictive Modeler       Australia  AUD                    0            78000
##  2 Scientist/Researcher     United St~ USD                    1           100000
##  3 Programmer               Other      GBP                   11                0
##  4 Data Scientist           United St~ USD                   16            50000
##  5 Programmer               Other      USD                   18             1000
##  6 Software Developer/Soft~ Russia     USD                   18            40000
##  7 Scientist/Researcher     Canada     CAD                   19                0
##  8 Computer Scientist       Brazil     BRL                   19              400
##  9 Machine Learning Engine~ Other      USD                   19            30000
## 10 Programmer               Russia     USD                   19            40000
## # ... with 3,771 more rows
…
