Poglavje 2 Urejeni in relacijski podatki | Urejanje podatkov
…
Več o kodiranjih bomo povedali na zadnjem predavanju.

2.2 Urejeni podatki

Omenili smo že, da se v praksi srečamo z najrazličnejšimi oblikami zapisov podatkov. Skupek paketov tidyverse je namenjen delu s tako imenovanimi urejenimi podatki (ang. tidy data). Ideja je, da se ustvari enoten standard za obliko podatkov, s katero je lažje delati. V kolikor se držimo tega standarda pri vseh naših analizah, nam to omogoča, da vedno uporabljamo ista orodja (na primer, ggplot2) in se nam ni potrebno učiti novih orodij za vsako analizo. Standard lahko povzamemo s 3 lastnostmi:

vsak stolpec je spremenljivka,

vsaka vrstica je primer podatka,

vsaka vrednost ima svojo celico.

Morda se na tej točki to sliši nekoliko abstraktno. Poglejmo si praktičen primer. Nabrali smo podatke o številu izdanih gradbenih dovoljenj v Sloveniji, razdeljeno glede na občine. Podatke smo prenesli s spletne strani statističnega urada Slovenije https://pxweb.stat.si/SiStat/slshranili in jih shranili na več načinov. Najprej si poglejmo podatke v takšni obliki, kot smo jih dobili naravnost iz vira.

## # A tibble: 424 x 16
##    OBČINE   TIP.STAVBE   `2007` `2008` `2009` `2010` `2011` `2012` `2013` `2014`
##    <chr>    <chr>         <dbl>  <dbl>  <dbl>  <dbl>  <dbl>  <dbl>  <dbl>  <dbl>
##  1 Ajdovšč~ Stanovanjsk~     52     55     45     33     52     40     29     30
##  2 Ajdovšč~ Nestanovanj~     19      9     22     15     27     11     23     11
##  3 Ankaran~ Stanovanjsk~     NA     NA     NA     NA     NA     NA     NA     NA
##  4 Ankaran~ Nestanovanj~     NA     NA     NA     NA     NA     NA     NA     NA
##  5 Apače    Stanovanjsk~     10     11     22     12      7      5      9     10
##  6 Apače    Nestanovanj~      3      3      8      3      4      6      2      3
##  7 Beltinci Stanovanjsk~     16     19     11     15     19     14      5     13
##  8 Beltinci Nestanovanj~      4      6      1      3      8      4      4      5
##  9 Benedikt Stanovanjsk~     11     12      6      9      7      3     16     10
## 10 Benedikt Nestanovanj~      3      2      1      3      5      3      4      3
## # ... with 414 more rows, and 6 more variables: 2015 <dbl>, 2016 <dbl>,
## #   2017 <dbl>, 2018 <dbl>, 2019 <dbl>, 2020 <dbl>

Najprej imamo na voljo spremenljivki OBČINE in TIP.STAVBE. Potem pa imamo za vsako leto naštete vrednosti, oziroma števila gradbenih dovoljenj. Podatki so velikokrat shranjeni v takšnem formatu, saj ima določene prednosti. Tak format je bolj prijazen za prikaz človeku, saj lahko samo s pogledom na razpredelnico hitro oceni, ali obstaja trend v posamezni vrstici. Format pa ni najboljši za delo s podatki. Govorili smo že o čistih podatkih in da vse funkcije v tidyverse podpirajo operacije nad takšnimi podatki. Kot vhod bo večina teh funkcij prejela čiste podatke in takšne potem tudi vrnila.

Kaj je razlog, da ti podatki niso čisti? Ne drži, da imamo v vsakem stolpcu spremenljivko, saj imamo eno spremenljivko razvlečeno čez več stolpcev – leto. Ta podatek vsekakor predstavlja spremenljivko, torej bi moral imeti enoten stolpec. Poglejmo si te podatke še v dveh nečistih formatih.

## # A tibble: 28 x 214
##    TIP.STAVBE          Leto Ajdovščina `Ankaran/Ancaran~ Apače Beltinci Benedikt
##    <chr>              <dbl>      <dbl>             <dbl> <dbl>    <dbl>    <dbl>
##  1 Stanovanjske stav~  2007         52                NA    10       16       11
##  2 Stanovanjske stav~  2008         55                NA    11       19       12
##  3 Stanovanjske stav~  2009         45                NA    22       11        6
##  4 Stanovanjske stav~  2010         33                NA    12       15        9
##  5 Stanovanjske stav~  2011         52                NA     7       19        7
##  6 Stanovanjske stav~  2012         40                NA     5       14        3
##  7 Stanovanjske stav~  2013         29                NA     9        5       16
##  8 Stanovanjske stav~  2014         30                NA    10       13       10
##  9 Stanovanjske stav~  2015         38                 3    12       23       13
## 10 Stanovanjske stav~  2016         31                 1    10       22       15
## # ... with 18 more rows, and 207 more variables: Bistrica ob Sotli <dbl>,
## #   Bled <dbl>, Bloke <dbl>, Bohinj <dbl>, Borovnica <dbl>, Bovec <dbl>,
## #   Braslovče <dbl>, Brda <dbl>, Brezovica <dbl>, Brežice <dbl>, Cankova <dbl>,
## #   Celje <dbl>, Cerklje na Gorenjskem <dbl>, Cerknica <dbl>, Cerkno <dbl>,
## #   Cerkvenjak <dbl>, Cirkulane <dbl>, Črenšovci <dbl>, Črna na Koroškem <dbl>,
## #   Črnomelj <dbl>, Destrnik <dbl>, Divača <dbl>, Dobje <dbl>,
## #   Dobrepolje <dbl>, Dobrna <dbl>, Dobrova - Polhov Gradec <dbl>,
## #   Dobrovnik/Dobronak <dbl>, Dol pri Ljubljani <dbl>, Dolenjske Toplice <dbl>,
## #   Domžale <dbl>, Dornava <dbl>, Dravograd <dbl>, Duplek <dbl>,
…
Sedaj imamo podobno situacijo kot prej – ena spremenljivka je razvlečena preko več stolpcev – v tem primeru je to občina. Kot smo že omenili, so vsaki nečisti podatki nečisti na svoj način. Podatki so popolnoma enaki kot v prejšnjem prikazu, ampak razpredelnica izgleda popolnoma drugače. Čisti podatki pa imajo samo eno pravilno obliko, torej ne more priti do takšnih dvoumnih prikazov.

Poglejmo si še tretji format:

## # A tibble: 5,936 x 3
##    OBČINA_TIP                      Leto Število.gradbenih.dovoljenj
##    <chr>                          <dbl>                       <dbl>
##  1 Ajdovščina_Stanovanjske stavbe  2007                          52
##  2 Ajdovščina_Stanovanjske stavbe  2008                          55
##  3 Ajdovščina_Stanovanjske stavbe  2009                          45
##  4 Ajdovščina_Stanovanjske stavbe  2010                          33
##  5 Ajdovščina_Stanovanjske stavbe  2011                          52
##  6 Ajdovščina_Stanovanjske stavbe  2012                          40
##  7 Ajdovščina_Stanovanjske stavbe  2013                          29
##  8 Ajdovščina_Stanovanjske stavbe  2014                          30
##  9 Ajdovščina_Stanovanjske stavbe  2015                          38
## 10 Ajdovščina_Stanovanjske stavbe  2016                          31
## # ... with 5,926 more rows

Ta je morda nekoliko bližje čistim podatkom, kot prejšnja dva, ampak še vedno ni v popolnoma pravilni obliki. V čem je težava? Dve spremenljivki imamo podani v enem stolpcu – občino in tip. Ker gre za različni spremenljivki, bi bilo dobro, da se pojavita v različnih stolpcih.

Poglejmo si sedaj še čiste podatke:

## # A tibble: 5,936 x 4
##    OBČINE     TIP.STAVBE           Leto Število.gradbenih.dovoljenj
##    <chr>      <chr>               <dbl>                       <dbl>
##  1 Ajdovščina Stanovanjske stavbe  2007                          52
##  2 Ajdovščina Stanovanjske stavbe  2008                          55
##  3 Ajdovščina Stanovanjske stavbe  2009                          45
##  4 Ajdovščina Stanovanjske stavbe  2010                          33
##  5 Ajdovščina Stanovanjske stavbe  2011                          52
##  6 Ajdovščina Stanovanjske stavbe  2012                          40
##  7 Ajdovščina Stanovanjske stavbe  2013                          29
##  8 Ajdovščina Stanovanjske stavbe  2014                          30
##  9 Ajdovščina Stanovanjske stavbe  2015                          38
## 10 Ajdovščina Stanovanjske stavbe  2016                          31
## # ... with 5,926 more rows

Sedaj ima vsaka spremenljivka (občina, tip in leto) svoj stolpec, zadnji stolpec pa je namenjen vrednostim. V tem poglavju se bomo naučili nečiste podatke spremeniti v čiste.

Čisti podatki imajo običajno več vrstic kot nečisti in jim zato pravimo da so daljši (ang. longer). Nečisti pa so običajno širši (ang. wider). Izogibamo se besedam dolgi in široki, saj je ta definicija relativna, se pravi lahko uporabimo transformacijo, ki naredi podatke daljše, ne pa nujno dolge, saj morda obstaja še kakšna operacija, ki jih bo naredila še daljše.

2.3 pivot_longer(): pretvorba v daljšo obliko

Funkcija pivot_longer() podatke spremeni v daljšo obliko. Ta trasformacija je pri delu s podatki bolj pogosta kot sprememba v širšo. Običajno uporabljamo to transformacijo, ko preurejamo podatke v čiste.

Poglejmo si ponovno nečiste podatke, ki smo jih dobili naravnost iz vira:

## # A tibble: 424 x 16
##    OBČINE   TIP.STAVBE   `2007` `2008` `2009` `2010` `2011` `2012` `2013` `2014`
##    <chr>    <chr>         <dbl>  <dbl>  <dbl>  <dbl>  <dbl>  <dbl>  <dbl>  <dbl>
##  1 Ajdovšč~ Stanovanjsk~     52     55     45     33     52     40     29     30
##  2 Ajdovšč~ Nestanovanj~     19      9     22     15     27     11     23     11
##  3 Ankaran~ Stanovanjsk~     NA     NA     NA     NA     NA     NA     NA     NA
##  4 Ankaran~ Nestanovanj~     NA     NA     NA     NA     NA     NA     NA     NA
##  5 Apače    Stanovanjsk~     10     11     22     12      7      5      9     10
##  6 Apače    Nestanovanj~      3      3      8      3      4      6      2      3
##  7 Beltinci Stanovanjsk~     16     19     11     15     19     14      5     13
##  8 Beltinci Nestanovanj~      4      6      1      3      8      4      4      5
##  9 Benedikt Stanovanjsk~     11     12      6      9      7      3     16     10
## 10 Benedikt Nestanovanj~      3      2      1      3      5      3      4      3
## # ... with 414 more rows, and 6 more variables: 2015 <dbl>, 2016 <dbl>,
## #   2017 <dbl>, 2018 <dbl>, 2019 <dbl>, 2020 <dbl>

Sedaj želimo te podatke spremeniti v čisto obliko. Vse stolpce, ki prikazujejo različne vrednosti spremenljivke leto, moramo zapisati v 1 stolpec. Uporabimo funkcijo pivot_longer(), ki prejme argumente:

data. Katere podatke želimo spremeniti.

cols. V katerih stolpcih imamo vrednosti spremenljivke, ki jo želimo shraniti v 1 stolpec.

df %>% pivot_longer(cols = `2007`:`2020`)

## # A tibble: 5,936 x 4
##    OBČINE     TIP.STAVBE          name  value
##    <chr>      <chr>               <chr> <dbl>
##  1 Ajdovščina Stanovanjske stavbe 2007     52
##  2 Ajdovščina Stanovanjske stavbe 2008     55
##  3 Ajdovščina Stanovanjske stavbe 2009     45
##  4 Ajdovščina Stanovanjske stavbe 2010     33
##  5 Ajdovščina Stanovanjske stavbe 2011     52
##  6 Ajdovščina Stanovanjske stavbe 2012     40
##  7 Ajdovščina Stanovanjske stavbe 2013     29
##  8 Ajdovščina Stanovanjske stavbe 2014     30
##  9 Ajdovščina Stanovanjske stavbe 2015     38
## 10 Ajdovščina Stanovanjske stavbe 2016     31
## # ... with 5,926 more rows

Sedaj imamo leta shranjena v stolpcu, prav tako pa vrednosti. Stolpca sta dobila privzeti meni name in value. Funkcija pivot_longer() pa lahko prejme še več opcijskih argumentov, za nas bosta najbolj pomembna 2:

names_to. Ime stolpca, v katerega bomo shranili spremenljivko.

value_to. Ime stolpca, v katerega bomo shranili vrednosti.

Uporabimo sedaj še ta 2 parametra:

df_longer <- df %>% pivot_longer(cols = `2007`:`2020`, 
                                 names_to = "Leto", 
                                 values_to = "Število")
df_longer

## # A tibble: 5,936 x 4
##    OBČINE     TIP.STAVBE          Leto  Število
##    <chr>      <chr>               <chr>   <dbl>
##  1 Ajdovščina Stanovanjske stavbe 2007       52
##  2 Ajdovščina Stanovanjske stavbe 2008       55
##  3 Ajdovščina Stanovanjske stavbe 2009       45
##  4 Ajdovščina Stanovanjske stavbe 2010       33
##  5 Ajdovščina Stanovanjske stavbe 2011       52
##  6 Ajdovščina Stanovanjske stavbe 2012       40
##  7 Ajdovščina Stanovanjske stavbe 2013       29
##  8 Ajdovščina Stanovanjske stavbe 2014       30
##  9 Ajdovščina Stanovanjske stavbe 2015       38
## 10 Ajdovščina Stanovanjske stavbe 2016       31
## # ... with 5,926 more rows
…
S takšnim prikazom lahko relativno hitro opazimo določene trende. Na primer v Ajdovščini se je gradilo veliko več stanovanjskih stavb med leti 2007 in 2014, leta 2015 pa se je očitno začelo graditi več nestanovanjskih stavb, kar bi lahko nakazovalo na gospodarsko rast tega mesta. Za človeka je torej tak prikaz boljši. Vsekakor pa bi v tem primeru raje uporabili vizualizacijo.

2.5 separate() in unite(): deljenje in združevanje stolpcev

V uvodu tega poglavja smo prikazali podatke, kjer sta bili dve spremenljivki shranjeni v enem stolpcu. Poglejmo si te podatke še enkrat:

df <- read_csv2("./data-raw/SLO-gradbena-dovoljenja-messy2.csv",
                locale = readr::locale(encoding = "cp1250"))
df

## # A tibble: 5,936 x 3
##    OBČINA_TIP                      Leto Število.gradbenih.dovoljenj
##    <chr>                          <dbl>                       <dbl>
##  1 Ajdovščina_Stanovanjske stavbe  2007                          52
##  2 Ajdovščina_Stanovanjske stavbe  2008                          55
##  3 Ajdovščina_Stanovanjske stavbe  2009                          45
##  4 Ajdovščina_Stanovanjske stavbe  2010                          33
##  5 Ajdovščina_Stanovanjske stavbe  2011                          52
##  6 Ajdovščina_Stanovanjske stavbe  2012                          40
##  7 Ajdovščina_Stanovanjske stavbe  2013                          29
##  8 Ajdovščina_Stanovanjske stavbe  2014                          30
##  9 Ajdovščina_Stanovanjske stavbe  2015                          38
## 10 Ajdovščina_Stanovanjske stavbe  2016                          31
## # ... with 5,926 more rows

Včasih se srečamo celo z dvema vrednostima v istem stolpcu. Da ločimo ti spremenljivki na dva stolpca uporabimo funkcijo separate():

separate(<podatki>, col = <ime-stolpca>, into = <ime-novih-stolpcev>, sep = <znak-ki-locuje>)

Uporabimo sedaj to funkcijo da pretvorimo df v čisto obliko:

df_tidy <- df %>%
  separate(col = "OBČINA_TIP", into = c("OBČINA", "TIP"), sep = "_")
df_tidy

## # A tibble: 5,936 x 4
##    OBČINA     TIP                  Leto Število.gradbenih.dovoljenj
##    <chr>      <chr>               <dbl>                       <dbl>
##  1 Ajdovščina Stanovanjske stavbe  2007                          52
##  2 Ajdovščina Stanovanjske stavbe  2008                          55
##  3 Ajdovščina Stanovanjske stavbe  2009                          45
##  4 Ajdovščina Stanovanjske stavbe  2010                          33
##  5 Ajdovščina Stanovanjske stavbe  2011                          52
##  6 Ajdovščina Stanovanjske stavbe  2012                          40
##  7 Ajdovščina Stanovanjske stavbe  2013                          29
##  8 Ajdovščina Stanovanjske stavbe  2014                          30
##  9 Ajdovščina Stanovanjske stavbe  2015                          38
## 10 Ajdovščina Stanovanjske stavbe  2016                          31
## # ... with 5,926 more rows
…
unite(<podatki>, <stolpec1>, <stolpec2>, ..., sep = <znak-ki-locuje>)

Pri tem tri pikice prestavljajo morebitne preostale stolpce, saj jih lahko združimo več.

Za primer si poglejmo, kako bi v eno spremenljivko shranili podatke o številu stanovanjskih in nestanovanjskih gradbenih dovoljenj. Najprej pretvorimo podatke v širšo obliko glede na tip, potem pa ta nova stolpca združimo s funkcijo unite().

df_wider <- df_tidy %>%
  pivot_wider(names_from = TIP, values_from = Število.gradbenih.dovoljenj) %>%
  unite("Stanovanjske/Nestanovanjske", 
        "Stanovanjske stavbe", 
        "Nestanovanjske stavbe", 
        sep = "/")
df_wider

## # A tibble: 2,968 x 3
##    OBČINA      Leto `Stanovanjske/Nestanovanjske`
##    <chr>      <dbl> <chr>                        
##  1 Ajdovščina  2007 52/19                        
##  2 Ajdovščina  2008 55/9                         
##  3 Ajdovščina  2009 45/22                        
##  4 Ajdovščina  2010 33/15                        
##  5 Ajdovščina  2011 52/27                        
##  6 Ajdovščina  2012 40/11                        
##  7 Ajdovščina  2013 29/23                        
##  8 Ajdovščina  2014 30/11                        
##  9 Ajdovščina  2015 38/49                        
## 10 Ajdovščina  2016 31/66                        
## # ... with 2,958 more rows
…
Takšnim podatkovnim zbirkam pravimo relacijske zbirke podatkov, saj so poleg podatkov v razpredelnicah pomembne tudi relacije oziroma povezave med razpredelnicami. Zaenkrat smo se naučili, kako urejati podatke v eni razpredelnici. Če želimo analizirati relacijske podatke, moramo znati upoštevati tudi povezave med njimi in jih ustrezno združevati. V tem poglavju bomo predelali operacije, ki nam to omogočajo. Morda ste se že srečali z jezikom SQL, ki se običajno uporablja za urejanje podatkov v sistemih za upravljanje relacijskih podatkovnih baz (ang. relational database management systems, RDBMS). Paket dplyr ima podobno sintakso kot SQL, vendar pa ni popolnoma enaka. Je tudi enostavnejši za uporabo pri analizi podatkov, saj je ustvarjen prav s tem namenom.

2.7 Primer: Bančni podatki

V tem poglavju bomo delali s podatki češke banke (https://data.world/lpetrocelli/czech-financial-dataset-real-anonymized-transactions, https://relational.fit.cvut.cz/dataset/Financial). Gre za realno anonimizirano podatkovno zbirko, ki je bila uporabljena v izzivu PKDD’99 Discovery Challenge (https://sorry.vse.cz/~berka/challenge/pkdd1999/berka.htm). Cilj izziva je bil odkriti dobre in slabe kliente z namenom izboljšanja ponudbe. Mi bomo te podatke uporabili za ilustracijo operacij na relacijski zbirki podatkov.

V mapi data_raw/financial se nahaja 5 razpredelnic v csv formatu: account.csv, client.csv, disp.csv, loan.csv in transaction-smaller.csv. Izvirni podatki vsebujejo še nekaj razpredelnic, vendar jih bomo z namenom učinkovitega prikaza izpustili. Prav tako smo pri razpredelnici transaction.csv naključno izbrali 20000 vrstic, saj originalna datoteka vsebuje preko milijon vrstic, kar bi upočasnilo izvajanje ukazov in zasedlo veliko prostora na repozitoriju. V kolikor želite raziskati celotno zbirko, predlagamo, da si podatke prenesete iz vira. Poglejmo si sedaj vsako izmed razpredelnic.

Razpredelnica account vsebuje podatke o računih na banki.

account <- read_csv2("./data-raw/financial/account.csv")
account

## # A tibble: 4,500 x 4
##    account_id district_id frequency       date      
##         <dbl>       <dbl> <chr>           <date>    
##  1          1          18 monthly payment 1995-03-24
##  2          2           1 monthly payment 1993-02-26
##  3          3           5 monthly payment 1997-07-07
##  4          4          12 monthly payment 1996-02-21
##  5          5          15 monthly payment 1997-05-30
##  6          6          51 monthly payment 1994-09-27
##  7          7          60 monthly payment 1996-11-24
##  8          8          57 monthly payment 1995-09-21
##  9          9          70 monthly payment 1993-01-27
## 10         10          54 monthly payment 1996-08-28
## # ... with 4,490 more rows

Razpredelnica client vsebuje podatke o strankah.

client <- read_csv2("./data-raw/financial/client.csv")
client

## # A tibble: 5,369 x 4
##    client_id gender birth_date district_id
##        <dbl> <chr>  <date>           <dbl>
##  1         1 F      1970-12-13          18
##  2         2 M      1945-02-04           1
##  3         3 F      1940-10-09           1
##  4         4 M      1956-12-01           5
##  5         5 F      1960-07-03           5
##  6         6 M      1919-09-22          12
##  7         7 M      1929-01-25          15
##  8         8 F      1938-02-21          51
##  9         9 M      1935-10-16          60
## 10        10 M      1943-05-01          57
## # ... with 5,359 more rows
…
